{
  "kind": "collectionType",
  "collectionName": "items",
  "info": {
    "name": "Item",
    "description": ""
  },
  "options": {
    "increments": true,
    "timestamps": true,
    "draftAndPublish": true
  },
  "pluginOptions": {},
  "attributes": {
    "name": {
      "type": "string"
    },
    "price": {
      "type": "decimal"
    },
    "description": {
      "type": "richtext"
    }
  }
}
